module gitlab.com/djoodle/helloworld/api

go 1.20

require (
	github.com/DATA-DOG/go-sqlmock v1.5.0
	github.com/ansrivas/fiberprometheus/v2 v2.6.0
	github.com/go-playground/validator/v10 v10.12.0
	github.com/gofiber/fiber/v2 v2.43.0
	github.com/rs/zerolog v1.29.0
	github.com/stretchr/testify v1.8.2
	github.com/wei840222/gorm-zerolog v0.0.0-20210303025759-235c42bb33fa
	gorm.io/driver/postgres v1.5.0
	gorm.io/gorm v1.25.0
)

require (
	bou.ke/monkey v1.0.2 // indirect
	github.com/andybalholm/brotli v1.0.5 // indirect
	github.com/aschenmaker/fiber-health-check v0.1.1 // indirect
	github.com/beorn7/perks v1.0.1 // indirect
	github.com/cespare/xxhash/v2 v2.1.2 // indirect
	github.com/davecgh/go-spew v1.1.1 // indirect
	github.com/dre1080/fiberlog v0.1.0 // indirect
	github.com/go-playground/locales v0.14.1 // indirect
	github.com/go-playground/universal-translator v0.18.1 // indirect
	github.com/gofiber/adaptor/v2 v2.1.31 // indirect
	github.com/gofiber/fiber v1.12.0 // indirect
	github.com/gofiber/utils v0.0.6 // indirect
	github.com/golang/protobuf v1.5.2 // indirect
	github.com/google/uuid v1.3.0 // indirect
	github.com/gorilla/schema v1.1.0 // indirect
	github.com/jackc/pgpassfile v1.0.0 // indirect
	github.com/jackc/pgservicefile v0.0.0-20221227161230-091c0ba34f0a // indirect
	github.com/jackc/pgx/v5 v5.3.0 // indirect
	github.com/jinzhu/gorm v1.9.16 // indirect
	github.com/jinzhu/inflection v1.0.0 // indirect
	github.com/jinzhu/now v1.1.5 // indirect
	github.com/joho/godotenv v1.5.1 // indirect
	github.com/klauspost/compress v1.16.3 // indirect
	github.com/leodido/go-urn v1.2.2 // indirect
	github.com/mattn/go-colorable v0.1.13 // indirect
	github.com/mattn/go-isatty v0.0.17 // indirect
	github.com/mattn/go-runewidth v0.0.14 // indirect
	github.com/matttproud/golang_protobuf_extensions v1.0.1 // indirect
	github.com/mpalmer/gorm-zerolog v0.1.0 // indirect
	github.com/philhofer/fwd v1.1.2 // indirect
	github.com/pmezard/go-difflib v1.0.0 // indirect
	github.com/prometheus/client_golang v1.14.0 // indirect
	github.com/prometheus/client_model v0.3.0 // indirect
	github.com/prometheus/common v0.37.0 // indirect
	github.com/prometheus/procfs v0.8.0 // indirect
	github.com/rivo/uniseg v0.2.0 // indirect
	github.com/savsgio/dictpool v0.0.0-20221023140959-7bf2e61cea94 // indirect
	github.com/savsgio/gotils v0.0.0-20230208104028-c358bd845dee // indirect
	github.com/tinylib/msgp v1.1.8 // indirect
	github.com/valyala/bytebufferpool v1.0.0 // indirect
	github.com/valyala/fasthttp v1.45.0 // indirect
	github.com/valyala/tcplisten v1.0.0 // indirect
	golang.org/x/crypto v0.7.0 // indirect
	golang.org/x/sys v0.6.0 // indirect
	golang.org/x/text v0.8.0 // indirect
	google.golang.org/protobuf v1.28.1 // indirect
	gopkg.in/yaml.v3 v3.0.1 // indirect
)
